T | main | T (
    (2 * 3 + 4 * 5) putnum
    (0 % 3) putnum
    (1 % 3) putnum
    (2 % 3) putnum
    (3 % 3) putnum
    (4 % 3) putnum
    (5 % 3) putnum
    (5 > 3) putnum
    (2 > 3) putnum
    (3 > 3) putnum
    (3 == 3) putnum
    (3 != 3) putnum
    (5 < 3) putnum
    (3 >= 3) putnum
)
